Place,Name,Sex,BirthDate,Equipment,Division,BodyweightKg,WeightClassKg,Squat1Kg,Squat2Kg,Squat3Kg,Best3SquatKg,Bench1Kg,Bench2Kg,Bench3Kg,Best3BenchKg,Deadlift1Kg,Deadlift2Kg,Deadlift3Kg,Best3DeadliftKg,TotalKg,Event,Tested
1,Manveet Kaur Sandhu,F,1998-12-19,Raw,Open,65.5,67.5,82.5,87.5,92.5,92.5,37.5,40,-45,40,107.5,117.5,125,125,257.5,SBD,Yes
1,Caitlin Fritz,F,1995-07-27,Raw,Open,102.6,110,107.5,120,130,130,67.5,75,-80,75,130,137.5,147.5,147.5,352.5,SBD,Yes
1,Ali Van Yzendoorn,F,1999-01-11,Raw,Open,66.9,67.5,,,,,62.5,67.5,-75,67.5,110,115,120,120,187.5,BD,Yes
1,Mujeeb Salim,M,1989-06-27,Raw,Open,64.5,67.5,187.5,200,207.5,207.5,130,137.5,140,140,215,227.5,-242.5,227.5,575,SBD,Yes
1,Phi Thach,M,1987-07-01,Raw,Open,68,75,220,230,237.5,237.5,125,132.5,137.5,137.5,230,240,245,245,620,SBD,Yes
DQ,Brendan Vogan,M,1994-08-16,Raw,Open,73.3,75,150,172.5,185,185,-95,-100,-100,,210,220,-227.5,220,,SBD,Yes
1,Joe Comi,M,1996-09-10,Raw,Open,89.6,90,190,-197.5,-197.5,190,107.5,115,-125,115,215,-225,227.5,227.5,532.5,SBD,Yes
2,Jason Rivas,M,1994-04-19,Raw,Open,87.5,90,170,180,-185,180,95,102.5,-110,102.5,205,212.5,222.5,222.5,505,SBD,Yes
3,Matt Mejias,M,1990-03-23,Raw,Open,87.2,90,150,160,-165,160,112.5,-117.5,-117.5,112.5,190,202.5,-212.5,202.5,475,SBD,Yes
1,Wesley Parsons,M,1994-03-01,Raw,Open,99.5,100,220,227.5,230,230,-132.5,132.5,-137.5,132.5,275,300,305,305,667.5,SBD,Yes
2,Spencer Trupp,M,1998-06-12,Raw,Open,99,100,215,225,232.5,232.5,-140,140,-142.5,140,250,260,-267.5,260,632.5,SBD,Yes
3,Leonard Dziemianko,M,1995-03-10,Raw,Open,96.9,100,202.5,212.5,222.5,222.5,117.5,122.5,-132.5,122.5,262.5,275,280,280,625,SBD,Yes
1,Josh Longley,M,1992-05-29,Raw,Open,105.8,110,220,230,237.5,237.5,-125,130,-140,130,250,265,272.5,272.5,640,SBD,Yes
2,Richard Moreau,M,1998-11-08,Raw,Open,107.6,110,215,225,-237.5,225,142.5,147.5,-152.5,147.5,237.5,247.5,262.5,262.5,635,SBD,Yes
DQ,Alex Ierullo,M,2002-03-04,Raw,Open,104.9,110,225,240,-253.5,240,-135,-135,-135,,262.5,272.5,-275,272.5,,SBD,Yes
