Place,Name,State,WeightClassKg,BodyweightKg,BirthDate,Age,Squat1Kg,Squat2Kg,Squat3Kg,Best3SquatKg,Bench1Kg,Bench2Kg,Bench3Kg,Best3BenchKg,Deadlift1Kg,Deadlift2Kg,Deadlift3Kg,Best3DeadliftKg,TotalKg,Bench4Kg,Deadlift4Kg,Event,Equipment,Sex,Division
1,Olivia Ryan,AL,60,59.6,,17,-112.5,-112.5,115,115,62.5,65,67.5,67.5,125,137.5,142.5,142.5,325,,,SBD,Raw,F,Juniors 16-17
1,Rayanne Huskey,MS,60,58.3,,23,107.5,-120,127.5,127.5,-67.5,-67.5,67.5,67.5,125,137.5,145,145,340,,,SBD,Raw,F,Juniors 20-23
2,Hannah Enamorado,LA,60,58.7,,20,107.5,112.5,122.5,122.5,57.5,-60,60,60,140,147.5,152.5,152.5,335,,,SBD,Raw,F,Juniors 20-23
1,Clara Hickman,WA,67.5,64,,16,95,102.5,107.5,107.5,50,55,-57.5,55,115,120,130,130,292.5,,,SBD,Raw,F,Juniors 16-17
1,Anna Walendzik,MS,67.5,62.5,,19,122.5,130,137.5,137.5,70,75,82.5,82.5,155,162.5,-172.5,162.5,382.5,,,SBD,Raw,F,Juniors 18-19
1,Adena Malone,AL,67.5,67.1,,23,-125,132.5,137.5,137.5,82.5,-87.5,-87.5,82.5,145,150,160,160,380,,,SBD,Raw,F,Juniors 20-23
2,Emilie Capuano,MA,67.5,66.4,,23,107.5,112.5,-117.5,112.5,70,75,-77.5,75,127.5,135,140,140,327.5,,,SBD,Raw,F,Juniors 20-23
1,Makyah Newlun,PA,75,73.6,,17,105,-110,115,115,70,75,77.5,77.5,140,145,150,150,342.5,,,SBD,Raw,F,Juniors 16-17
1,Cara Robertson,MS,82.5,80.4,,18,120,140,155,155,55,62.5,72.5,72.5,162.5,180,182.5,182.5,410,,,SBD,Raw,F,Juniors 18-19
1,Katherine Moza,TX,82.5,79.9,,21,130,135,145,145,62.5,67.5,75,75,165,172.5,-182.5,172.5,392.5,,,SBD,Raw,F,Juniors 20-23
2,Macy Gauch,FL,82.5,77.7,,20,115,125,-137.5,125,65,70,-75,70,135,145,152.5,152.5,347.5,,,SBD,Raw,F,Juniors 20-23
1,Lia Davis,MD,100,97.5,,23,160,167.5,175,175,70,75,77.5,77.5,130,135,,135,387.5,,,SBD,Raw,F,Juniors 20-23
1,Taylor Castille,LA,110+,167.8,,20,205,-227.5,-232.5,205,97.5,105,-115,105,182.5,195,205,205,515,,,SBD,Raw,F,Juniors 20-23
1,Janet Montoya,MS,48,46.7,,24,87.5,92.5,100,100,45,47.5,52.5,52.5,125,132.5,137.5,137.5,290,,,SBD,Raw,F,Open
2,Iva HoSang,FL,48,45.9,,52,62.5,77.5,82.5,82.5,35,37.5,-40,37.5,105,110,-115,110,230,,,SBD,Raw,F,Open
1,Rhonda Freeman,KS,56,55.9,,43,112.5,120,122.5,122.5,75,80,82.5,82.5,132.5,140,145,145,350,,,SBD,Raw,F,Open
2,Brittany Whatley,MS,56,54.9,,35,105,-110,110,110,57.5,-62.5,-62.5,57.5,115,120,122.5,122.5,290,,,SBD,Raw,F,Open
3,Chrissy Gibson,OK,56,55.5,,42,87.5,-92.5,-92.5,87.5,62.5,67.5,-70,67.5,115,-132.5,132.5,132.5,287.5,,,SBD,Raw,F,Open
1,Ellen Stein,NY,60,59.1,,70,152.5,162.5,172.5,172.5,85,90,95,95,177.5,187.5,197.5,197.5,465,,,SBD,Raw,F,Open
2,Rayanne Huskey,MS,60,58.3,,23,107.5,-120,127.5,127.5,-67.5,-67.5,67.5,67.5,125,137.5,145,145,340,,,SBD,Raw,F,Open
3,Hannah Enamorado,LA,60,58.7,,20,107.5,112.5,122.5,122.5,57.5,-60,60,60,140,147.5,152.5,152.5,335,,,SBD,Raw,F,Open
4,Kristin Fletcher,LA,60,58.7,,33,110,-112.5,-112.5,110,55,57.5,-60,57.5,122.5,127.5,130,130,297.5,,,SBD,Raw,F,Open
5,Ellie Vasey,AZ,60,58.2,,24,97.5,100,110,110,-52.5,57.5,-65,57.5,112.5,115,-120,115,282.5,,,SBD,Raw,F,Open
1,Nicole Hagstrom,FL,67.5,66.8,,46,160,170,-175,170,100,105,107.5,107.5,190,201,208,208,485.5,,211,SBD,Raw,F,Open
2,Michelle Mazulis,NM,67.5,67,,54,150,160,-167.5,160,92.5,-98,-98,92.5,175,182.5,185,185,437.5,,,SBD,Raw,F,Open
3,Monica Morris,MO,67.5,66.3,,49,145,150,152.5,152.5,100,-105,-105,100,167.5,177.5,182.5,182.5,435,,,SBD,Raw,F,Open
4,Paige Kimball,LA,67.5,66.6,,33,130,140,147.5,147.5,90,95,-97.5,95,172.5,182.5,-195,182.5,425,,,SBD,Raw,F,Open
5,Erin Schaefer,LA,67.5,66,,27,145,152.5,157.5,157.5,65,67.5,70,70,177.5,185,-190,185,412.5,,,SBD,Raw,F,Open
6,Meghan Kammerer,TN,67.5,64.5,,27,127.5,137.5,-145,137.5,77.5,82.5,-87.5,82.5,157.5,170,175,175,395,,,SBD,Raw,F,Open
7,Afton Webb,LA,67.5,64.7,,39,137.5,142.5,-145,142.5,-75,75,-77.5,75,-167.5,167.5,-172.5,167.5,385,,,SBD,Raw,F,Open
8,Anna Walendzik,MS,67.5,62.5,,19,122.5,130,137.5,137.5,70,75,82.5,82.5,155,162.5,-172.5,162.5,382.5,,,SBD,Raw,F,Open
9,Adena Malone,AL,67.5,67.1,,23,-125,132.5,137.5,137.5,82.5,-87.5,-87.5,82.5,145,150,160,160,380,,,SBD,Raw,F,Open
10,Heather Rutledge,FL,67.5,66.2,,35,-127.5,127.5,140,140,62.5,70,77.5,77.5,127.5,140,147.5,147.5,365,,,SBD,Raw,F,Open
11,Kathryn-Ann Conroy,GA,67.5,67.1,,26,112.5,-115,117.5,117.5,67.5,70,-72.5,70,137.5,140,142.5,142.5,330,,,SBD,Raw,F,Open
12,Michaela Hauser,MS,67.5,65.5,,26,117.5,122.5,-127.5,122.5,52.5,57.5,-62.5,57.5,120,127.5,-132.5,127.5,307.5,,,SBD,Raw,F,Open
13,Clara Hickman,WA,67.5,64,,16,95,102.5,107.5,107.5,50,55,-57.5,55,115,120,130,130,292.5,,,SBD,Raw,F,Open
1,Jasmine Barber,GA,75,74.4,,32,-125,125,150,150,107.5,115,122.5,122.5,125,155,172.5,172.5,445,,,SBD,Raw,F,Open
2,Angela Lovelady,CO,75,73.5,,39,137.5,152.5,160,160,75,82.5,-85,82.5,165,177.5,185,185,427.5,,,SBD,Raw,F,Open
3,Amanda Payne,AL,75,74.6,,47,142.5,-150,-150,142.5,72.5,77.5,82.5,82.5,162.5,175,-185,175,400,,,SBD,Raw,F,Open
4,Jessica Skarin,LA,75,74.1,,41,137.5,145,150,150,85,90,95,95,145,152.5,-165,152.5,397.5,,,SBD,Raw,F,Open
5,Marissa Taylor,TN,75,73.7,,37,135,145,150,150,62.5,70,77.5,77.5,145,157.5,167.5,167.5,395,,,SBD,Raw,F,Open
6,Elizabeth Wallace,GA,75,75,,34,130,-142.5,-150,130,87.5,-92.5,-92.5,87.5,150,167.5,-182.5,167.5,385,,,SBD,Raw,F,Open
7,Sarah Cruthirds,TX,75,74.8,,26,-125,125,,125,55,60,-65,60,150,160,167.5,167.5,352.5,,,SBD,Raw,F,Open
8,Sarah Cates,GA,75,74.1,,28,102.5,112.5,-117.5,112.5,57.5,62.5,-67.5,62.5,127.5,137.5,145,145,320,,,SBD,Raw,F,Open
1,Sophia Singler,LA,82.5,82.3,,26,205,212.5,223,223,100,102.5,-107.5,102.5,210,215,-235,215,540.5,,,SBD,Raw,F,Open
2,Rhonda Carson,TN,82.5,81.3,,23,132.5,142.5,150,150,65,70,75,75,160,172.5,187.5,187.5,412.5,,,SBD,Raw,F,Open
3,Cara Robertson,MS,82.5,80.4,,18,120,140,155,155,55,62.5,72.5,72.5,162.5,180,182.5,182.5,410,,,SBD,Raw,F,Open
4,Samantha McFaddin,KS,82.5,81.4,,28,132.5,137.5,-145,137.5,67.5,70,-75,70,152.5,157.5,162.5,162.5,370,,,SBD,Raw,F,Open
5,Amanda Anderson #1,TN,82.5,81.4,,33,125,135,-140,135,67.5,72.5,-75,72.5,145,-157.5,-157.5,145,352.5,,,SBD,Raw,F,Open
6,Angel Shulterbrandt,LA,82.5,81.9,,37,107.5,110,115,115,60,62.5,67.5,67.5,142.5,152.5,157.5,157.5,340,,,SBD,Raw,F,Open
1,Karneshia Thomas,AL,100,97.8,,32,140,150,-162.5,150,97.5,-102.5,102.5,102.5,220,230.5,235,235,487.5,,,SBD,Raw,F,Open
2,Caitlin Ciaccio,LA,100,95.7,,31,170,180,185,185,90,95,-97.5,95,175,185,-205,185,465,,,SBD,Raw,F,Open
3,Lia Davis,MD,100,97.5,,23,160,167.5,175,175,70,75,77.5,77.5,130,135,,135,387.5,,,SBD,Raw,F,Open
1,Michelle Abram,WA,110,106.3,,53,160,182.5,,182.5,115,120,122.5,122.5,175,185,195,195,500,125,,SBD,Raw,F,Open
1,Taylor Castille,LA,110+,167.8,,20,205,-227.5,-232.5,205,97.5,105,-115,105,182.5,195,205,205,515,,,SBD,Raw,F,Open
2,April Goff,MS,110+,130.4,,43,165,175,182.5,182.5,90,95,-97.5,95,182.5,187.5,192.5,192.5,470,,,SBD,Raw,F,Open
1,Mai Mijares,KS,60,57.6,,36,135,140,145,145,72.5,75,77.5,77.5,160,170,175,175,397.5,,,SBD,Raw,F,Submasters 35-39
1,Afton Webb,LA,67.5,64.7,,39,137.5,142.5,-145,142.5,-75,75,-77.5,75,-167.5,167.5,-172.5,167.5,385,,,SBD,Raw,F,Submasters 35-39
2,Heather Rutledge,FL,67.5,66.2,,35,-127.5,127.5,140,140,62.5,70,77.5,77.5,127.5,140,147.5,147.5,365,,,SBD,Raw,F,Submasters 35-39
1,Angela Lovelady,CO,75,73.5,,39,137.5,152.5,160,160,75,82.5,-85,82.5,165,177.5,185,185,427.5,,,SBD,Raw,F,Submasters 35-39
2,Marissa Taylor,TN,75,73.7,,37,135,145,150,150,62.5,70,77.5,77.5,145,157.5,167.5,167.5,395,,,SBD,Raw,F,Submasters 35-39
1,Christina Morris #1,AL,82.5,82.1,,37,120,130,135,135,75,-80,-80,75,135,147.5,157.5,157.5,367.5,,,SBD,Raw,F,Submasters 35-39
2,Angel Shulterbrandt,LA,82.5,81.9,,37,107.5,110,115,115,60,62.5,67.5,67.5,142.5,152.5,157.5,157.5,340,,,SBD,Raw,F,Submasters 35-39
1,Iva HoSang,FL,48,45.9,,52,62.5,77.5,82.5,82.5,35,37.5,-40,37.5,105,110,-115,110,230,,,SBD,Raw,F,Masters 50-54
1,Rhonda Freeman,KS,56,55.9,,43,112.5,120,122.5,122.5,75,80,82.5,82.5,132.5,140,145,145,350,,,SBD,Raw,F,Masters 40-44
2,Chrissy Gibson,OK,56,55.5,,42,87.5,-92.5,-92.5,87.5,62.5,67.5,-70,67.5,115,-132.5,132.5,132.5,287.5,,,SBD,Raw,F,Masters 40-44
1,Charlene Mizner,AZ,56,53.7,,68,55,-60,-60,55,32.5,-35,-35,32.5,57.5,102.5,-105,102.5,190,,,SBD,Raw,F,Masters 65-69
1,Julie Hurley,FL,60,57.1,,61,75,77.5,80,80,52.5,55,57.5,57.5,107.5,112.5,115,115,252.5,,,SBD,Raw,F,Masters 60-64
DQ,Alice Hulsey,TX,60,56.5,,62,-80,-82.5,-82.5,,42.5,45,-50,45,105,110,-115,110,,,,SBD,Raw,F,Masters 60-64
1,Ellen Stein,NY,60,59.1,,70,152.5,162.5,172.5,172.5,85,90,95,95,177.5,187.5,197.5,197.5,465,,,SBD,Raw,F,Masters 70-74
1,Nicole Hagstrom,FL,67.5,66.8,,46,160,170,-175,170,100,105,107.5,107.5,190,201,208,208,485.5,,211,SBD,Raw,F,Masters 45-49
2,Monica Morris,MO,67.5,66.3,,49,145,150,152.5,152.5,100,-105,-105,100,167.5,177.5,182.5,182.5,435,,,SBD,Raw,F,Masters 45-49
1,Michelle Mazulis,NM,67.5,67,,54,150,160,-167.5,160,92.5,-98,-98,92.5,175,182.5,185,185,437.5,,,SBD,Raw,F,Masters 50-54
2,Miranda Walichowski,TX,67.5,66.6,,50,102.5,112.5,115,115,60,-67.5,-67.5,60,130,-142.5,-142.5,130,305,,,SBD,Raw,F,Masters 50-54
1,Jessica Skarin,LA,75,74.1,,41,137.5,145,150,150,85,90,95,95,145,152.5,-165,152.5,397.5,,,SBD,Raw,F,Masters 40-44
2,Brooke Vorhoff,KY,75,74.5,,41,110,120,-132.5,120,75,-80,-80,75,150,160,165,165,360,,,SBD,Raw,F,Masters 40-44
1,Amanda Payne,AL,75,74.6,,47,142.5,-150,-150,142.5,72.5,77.5,82.5,82.5,162.5,175,-185,175,400,,,SBD,Raw,F,Masters 45-49
1,Sherri Peppo,LA,75,70.6,,59,85,95,100,100,55,-60,-60,55,125,135,142.5,142.5,297.5,,,SBD,Raw,F,Masters 55-59
1,Barbara Taylor,CA,75,71.1,,65,-122.5,-122.5,122.5,122.5,105,-110,110,110,160,175,187.5,187.5,420,,,SBD,Raw,F,Masters 65-69
1,Tabetha Held,MO,82.5,78.4,,53,147.5,162.5,175,175,97.5,102.5,105.5,105.5,150,170,182.5,182.5,463,,,SBD,Raw,F,Masters 50-54
1,Leah Michael,LA,82.5,78.7,,68,125,140,147.5,147.5,97.5,105,110,110,150,170,-185,170,427.5,,,SBD,Raw,F,Masters 65-69
1,Michelle Abram,WA,110,106.3,,53,160,182.5,,182.5,115,120,122.5,122.5,175,185,195,195,500,125,,SBD,Raw,F,Masters 50-54
1,April Goff,MS,110+,130.4,,43,165,175,182.5,182.5,90,95,-97.5,95,182.5,187.5,192.5,192.5,470,,,SBD,Raw,F,Masters 40-44
1,Ethan Nguyen #5,LA,52,51.2,,19,92.5,-102.5,-102.5,92.5,47.5,52.5,-55,52.5,102.5,-110,110,110,255,,,SBD,Raw,M,Juniors 18-19
1,Christian Tran,LA,56,54.8,,17,90,95,100,100,57.5,62.5,65,65,147.5,160,170,170,335,,,SBD,Raw,M,Juniors 16-17
1,Sean O'Brien,FL,56,54.2,,23,120,127.5,132.5,132.5,85,95,-97.5,95,170,182.5,190,190,417.5,,,SBD,Raw,M,Juniors 20-23
1,Julian Miller,AL,60,58.7,,20,150,-167.5,-167.5,150,72.5,-75,75,75,172.5,187.5,207.5,207.5,432.5,,,SBD,Raw,M,Juniors 20-23
1,Faryn Boudreaux,LA,67.5,64.2,,15,142.5,150,157.5,157.5,85,87.5,-90,87.5,150,157.5,-167.5,157.5,402.5,,,SBD,Raw,M,Juniors 13-15
2,Alex Dilorenzo,LA,67.5,66.4,,15,145,-152.5,155,155,-67.5,72.5,-77.5,72.5,152.5,157.5,162.5,162.5,390,,,SBD,Raw,M,Juniors 13-15
1,Tuan Ha,GA,67.5,63,,16,147.5,155,-165,155,-87.5,87.5,-97.5,87.5,215,-227.5,-237.5,215,457.5,,,SBD,Raw,M,Juniors 16-17
2,Donovan Munoz,TX,67.5,67.3,,16,142.5,-145,-145,142.5,87.5,95,-100,95,175,182.5,190,190,427.5,,,SBD,Raw,M,Juniors 16-17
DQ,Preston Kirk,FL,67.5,66.9,,17,-130,-135,-135,,90,97.5,-100,97.5,210,-222.5,-222.5,210,,,,SBD,Raw,M,Juniors 16-17
1,Hunter Butler,LA,67.5,66.5,,19,207.5,-222.5,227.5,227.5,112.5,115,-117.5,115,237.5,247.5,-257.5,247.5,590,,,SBD,Raw,M,Juniors 18-19
2,Daniel Hinojos,TX,67.5,64.7,,18,175,-187.5,187.5,187.5,-97.5,102.5,-105,102.5,190,192.5,200,200,490,,,SBD,Raw,M,Juniors 18-19
3,Nolan Elliott,SC,67.5,62,,18,165,177.5,-190,177.5,77.5,-87.5,-87.5,77.5,165,177.5,187.5,187.5,442.5,,,SBD,Raw,M,Juniors 18-19
4,Blade Miller,MS,67.5,67.2,,18,135,-145,-145,135,80,-85,92.5,92.5,175,187.5,195,195,422.5,,,SBD,Raw,M,Juniors 18-19
1,Hunter Richey,LA,67.5,66.6,,23,185,200,-205,200,135,150,155,155,-235,245,-255,245,600,,,SBD,Raw,M,Juniors 20-23
2,Ali Maatalla,MS,67.5,62.3,,21,120,-127.5,-127.5,120,-80,85,-87.5,85,205,212.5,215,215,420,,,SBD,Raw,M,Juniors 20-23
1,Cohen Lentini,AL,75,74.2,,15,165,175,182.5,182.5,82.5,90,-100,90,165,175,187.5,187.5,460,,,SBD,Raw,M,Juniors 13-15
1,Andy Thai,LA,75,74.6,,16,190,195,205,205,102.5,107.5,-110,107.5,192.5,202.5,-212.5,202.5,515,,,SBD,Raw,M,Juniors 16-17
DQ,James Pham,FL,75,69.6,,17,-145,160,172.5,172.5,87.5,97.5,-105,97.5,-190,-190,-190,,,,,SBD,Raw,M,Juniors 16-17
1,Peter Nguyen #16,LA,75,74.7,,19,-190,190,-192.5,190,110,-115,-115,110,207.5,217.5,-222.5,217.5,517.5,,,SBD,Raw,M,Juniors 18-19
1,William Walker #6,LA,75,74.8,,20,205,215,227.5,227.5,150,-160,-160,150,205,220,230,230,607.5,,,SBD,Raw,M,Juniors 20-23
2,Ben Britton,PA,75,73.3,,21,172.5,180,185,185,92.5,97.5,-100,97.5,227.5,237.5,242.5,242.5,525,,,SBD,Raw,M,Juniors 20-23
DQ,Reynaldo Calvillo,NC,75,71.5,,23,222.5,230,-235,230,-137.5,-137.5,-137.5,,-255,,,,,,,SBD,Raw,M,Juniors 20-23
1,Avery Johnson,NJ,82.5,76.2,,15,-142.5,147.5,-155,147.5,115,-120,120,120,187.5,195,200,200,467.5,,,SBD,Raw,M,Juniors 13-15
1,Sean White,TX,82.5,78,,16,185,-190,-190,185,125,135,-140,135,170,-180,180,180,500,,,SBD,Raw,M,Juniors 16-17
2,Dylan Carrasco,TX,82.5,80.5,,17,172.5,182.5,-190,182.5,102.5,110,-112.5,110,177.5,185,-190,185,477.5,,,SBD,Raw,M,Juniors 16-17
1,Jayden Lowe,MS,82.5,79.6,,18,245,257.5,270,270,152.5,160,165,165,310,327.5,337.5,337.5,772.5,,,SBD,Raw,M,Juniors 18-19
2,William Moreland,GA,82.5,80.6,,19,-222.5,222.5,240,240,140,145,150,150,-262.5,262.5,275,275,665,,293,SBD,Raw,M,Juniors 18-19
3,Noah Dimichino,NY,82.5,80.3,,19,-220,-230,230,230,130,-140,140,140,285,-292.5,-292.5,285,655,,,SBD,Raw,M,Juniors 18-19
4,Ryan Hoyt,KS,82.5,80.1,,19,-205,205,215,215,130,140,-145,140,215,232.5,,232.5,587.5,,,SBD,Raw,M,Juniors 18-19
5,Noah Goudeau,LA,82.5,81.8,,18,-210,220,235,235,115,122.5,-127.5,122.5,-210,220,230,230,587.5,,,SBD,Raw,M,Juniors 18-19
6,Will Jones,GA,82.5,81.5,,18,195,205,212.5,212.5,105,115,125,125,220,230,237.5,237.5,575,,,SBD,Raw,M,Juniors 18-19
7,Russell McKnight,LA,82.5,81.4,,19,182.5,192.5,205,205,112.5,120,-127.5,120,197.5,205,215,215,540,,,SBD,Raw,M,Juniors 18-19
8,Matthew Diccion,PA,82.5,76.6,,18,-165,170,-185,170,72.5,77.5,-82.5,77.5,205,-227.5,-242.5,205,452.5,,,SBD,Raw,M,Juniors 18-19
DQ,Jay Beyers,NJ,82.5,81,,18,-215,-215,-215,,125,130,-137.5,130,-257.5,,,,,,,SBD,Raw,M,Juniors 18-19
1,McVay Stockwell,LA,82.5,81,,20,272.5,290,295,295,152.5,165,172.5,172.5,290,-302.5,-307.5,290,757.5,,,SBD,Raw,M,Juniors 20-23
2,Logan Adams,MS,82.5,81.7,,23,240,252.5,260,260,140,147.5,152.5,152.5,260,272.5,282.5,282.5,695,,,SBD,Raw,M,Juniors 20-23
3,Alex Marshall #2,GA,82.5,80.8,,22,217.5,235,247.5,247.5,162.5,170,-177.5,170,237.5,257.5,272.5,272.5,690,,,SBD,Raw,M,Juniors 20-23
4,David Chauvin,LA,82.5,80.2,,21,230,242.5,252.5,252.5,147.5,155,-162.5,155,260,-272.5,-277.5,260,667.5,,,SBD,Raw,M,Juniors 20-23
5,Hayes Boone,TX,82.5,81.9,,20,217.5,230,,230,140,147.5,152.5,152.5,230,245,260,260,642.5,,,SBD,Raw,M,Juniors 20-23
DQ,Christian Montalvo,NJ,90,89.2,,17,-217.5,227.5,-237.5,227.5,107.5,117.5,-127.5,117.5,-247.5,-262.5,-262.5,,,,,SBD,Raw,M,Juniors 16-17
1,Timothy Pritt,VA,90,88.4,,19,207.5,230,257.5,257.5,150,160,165,165,267.5,277.5,287.5,287.5,710,,,SBD,Raw,M,Juniors 18-19
2,Joseph Bork,WI,90,88.7,,19,-197.5,202.5,-212.5,202.5,107.5,117.5,-130,117.5,-232.5,245,-260,245,565,,,SBD,Raw,M,Juniors 18-19
1,Ethan Yodanza,LA,90,88.7,,20,-255,267.5,-280,267.5,170,-177.5,-177.5,170,-280,295,302.5,302.5,740,,,SBD,Raw,M,Juniors 20-23
2,Dylan Schortemeyer,FL,90,89.9,,23,232.5,237.5,242.5,242.5,155,160,167.5,167.5,280,290,300,300,710,,,SBD,Raw,M,Juniors 20-23
3,Jason Guillot,LA,90,86.5,,23,225,240,250,250,135,145,155,155,260,275,290,290,695,,,SBD,Raw,M,Juniors 20-23
4,Kyle Robinson,FL,90,86.2,,23,-220,220,-227.5,220,152.5,-160,-160,152.5,275,285,290,290,662.5,,,SBD,Raw,M,Juniors 20-23
5,Dariyen Naranjo,LA,90,87.4,,20,-225,225,247.5,247.5,135,142.5,152.5,152.5,240,252.5,260,260,660,,,SBD,Raw,M,Juniors 20-23
6,Charles Orsborne,SC,90,87.5,,20,217.5,240,-257.5,240,140,-155,-155,140,280,-308,-308,280,660,,,SBD,Raw,M,Juniors 20-23
7,Dontae Dunaway,TX,90,87.3,,23,190,205,212.5,212.5,105,110,115,115,220,235,247.5,247.5,575,,,SBD,Raw,M,Juniors 20-23
1,Chase Gill,KY,100,100,,19,250,265,272.5,272.5,155,167.5,-172.5,167.5,265,277.5,-285,277.5,717.5,,,SBD,Raw,M,Juniors 18-19
2,Eli Janes,MS,100,97.6,,19,195,202.5,-210,202.5,115,125,-135,125,210,222.5,-235,222.5,550,,,SBD,Raw,M,Juniors 18-19
1,Abraham Salako,RI,100,97.6,,23,245,260,-272.5,260,142.5,152.5,160,160,275,-290,-310,275,695,,,SBD,Raw,M,Juniors 20-23
2,Jaylen Griffith,LA,100,98.2,,23,-207.5,207.5,237.5,237.5,130,140,147.5,147.5,252.5,275,290,290,675,,,SBD,Raw,M,Juniors 20-23
3,Forrest Foley,AL,100,96.6,,23,212.5,230,237.5,237.5,130,137.5,-140,137.5,237.5,252.5,-260,252.5,627.5,,,SBD,Raw,M,Juniors 20-23
1,Eli Latiolais,LA,110,109.9,,18,272.5,287.5,302.5,302.5,165,175,182.5,182.5,262.5,277.5,287.5,287.5,772.5,,,SBD,Raw,M,Juniors 18-19
1,Brenden Petralia,NY,110,110,,20,237.5,252.5,257.5,257.5,140,150,152.5,152.5,-285,300,-317.5,300,710,,,SBD,Raw,M,Juniors 20-23
1,Dominic Maldonado,LA,125,123.7,,17,252.5,260,-270,260,147.5,155,-160,155,260,285.5,-290,285.5,700.5,,,SBD,Raw,M,Juniors 16-17
1,Paul Baxter,LA,125,121.1,,23,-265,265,270,270,160,165,167.5,167.5,245,260,-265,260,697.5,,,SBD,Raw,M,Juniors 20-23
2,Ryan Haigh,SC,125,124.3,,21,-235,240,-252.5,240,192.5,-202.5,-202.5,192.5,252.5,-262.5,-267.5,252.5,685,,,SBD,Raw,M,Juniors 20-23
3,Thomas Douglas,GA,125,118.7,,23,240,262.5,280,280,-142.5,150,-155,150,222.5,237.5,-250,237.5,667.5,,,SBD,Raw,M,Juniors 20-23
1,Markham Mcknight,LA,140,135.2,,23,262.5,277.5,-285,277.5,135,140,147.5,147.5,262.5,-272.5,,262.5,687.5,,,SBD,Raw,M,Juniors 20-23
1,Sean O'Brien,FL,56,54.2,,23,120,127.5,132.5,132.5,85,95,-97.5,95,170,182.5,190,190,417.5,,,SBD,Raw,M,Open
1,Cain Sudduth,MS,60,58.3,,24,142.5,150,155,155,122.5,-127.5,-127.5,122.5,182.5,187.5,192.5,192.5,470,,,SBD,Raw,M,Open
2,Deandre Louis,LA,60,58.3,,26,-165,-165,165,165,85,87.5,90,90,-145,145,,145,400,,,SBD,Raw,M,Open
1,Michael Ebanks,LA,67.5,67.4,,27,227.5,240,250,250,135,145,-150,145,-267.5,267.5,-287.5,267.5,662.5,,,SBD,Raw,M,Open
2,Hunter Richey,LA,67.5,66.6,,23,185,200,-205,200,135,150,155,155,-235,245,-255,245,600,,,SBD,Raw,M,Open
3,Hunter Butler,LA,67.5,66.5,,19,207.5,-222.5,227.5,227.5,112.5,115,-117.5,115,237.5,247.5,-257.5,247.5,590,,,SBD,Raw,M,Open
4,Cole Lavergne,LA,67.5,67.4,,40,-177.5,177.5,187.5,187.5,125,130,-132.5,130,215,227.5,-232.5,227.5,545,,,SBD,Raw,M,Open
5,Brandon Singhaninh,AR,67.5,65.8,,28,170,-177.5,-177.5,170,132.5,140,-142.5,140,212.5,222.5,227.5,227.5,537.5,,,SBD,Raw,M,Open
6,Paul Remedios,LA,67.5,66.2,,37,160,170,177.5,177.5,117.5,125,132.5,132.5,200,210,220,220,530,,,SBD,Raw,M,Open
7,Trevor Gilmore,LA,67.5,64.3,,28,150,160,165,165,82.5,87.5,92.5,92.5,197.5,207.5,-217.5,207.5,465,,,SBD,Raw,M,Open
8,Adam Espinosa,RI,67.5,66.9,,25,152.5,162.5,-172.5,162.5,92.5,97.5,102.5,102.5,197.5,-210,-210,197.5,462.5,,,SBD,Raw,M,Open
9,Ali Maatalla,MS,67.5,62.3,,21,120,-127.5,-127.5,120,-80,85,-87.5,85,205,212.5,215,215,420,,,SBD,Raw,M,Open
1,Leon Boudreaux,LA,75,74.9,1997-05-15,26,240,255,-262.5,255,160,165,170,170,262.5,277.5,285,285,710,,,SBD,Raw,M,Open
2,Gerald Green,LA,75,73.6,,42,205,231.5,235,235,142.5,152.5,155,155,262.5,285,292.5,292.5,682.5,,,SBD,Raw,M,Open
3,Richard Giglio,NY,75,75,,26,215,240,-250,240,142.5,155,-165,155,227.5,240,257.5,257.5,652.5,,,SBD,Raw,M,Open
4,Chris Lentini #1,AL,75,74.7,,46,217.5,227.5,-237.5,227.5,165,173,-177.5,173,250,-262.5,-262.5,250,650.5,,,SBD,Raw,M,Open
5,James Phatsadavong,AL,75,73.8,,27,220,230,240,240,132.5,142.5,-147.5,142.5,240,255,-267.5,255,637.5,,,SBD,Raw,M,Open
6,Joshua Halbrook,AL,75,72.9,,24,192.5,205,210,210,147.5,152.5,-162.5,152.5,-227.5,227.5,-250,227.5,590,,,SBD,Raw,M,Open
7,Thomas Knight,SC,75,74.3,,37,207.5,225,-235.5,225,125,130,-137.5,130,200,232.5,-245,232.5,587.5,,,SBD,Raw,M,Open
8,Seth Smith,FL,75,73.3,,28,195,205,-210,205,95,102.5,105,105,210,220,227.5,227.5,537.5,,,SBD,Raw,M,Open
9,Peter Nguyen #16,LA,75,74.7,,19,-190,190,-192.5,190,110,-115,-115,110,207.5,217.5,-222.5,217.5,517.5,,,SBD,Raw,M,Open
10,Andy Thai,LA,75,74.6,,16,190,195,205,205,102.5,107.5,-110,107.5,192.5,202.5,-212.5,202.5,515,,,SBD,Raw,M,Open
1,McVay Stockwell,LA,82.5,81,,20,272.5,290,295,295,152.5,165,172.5,172.5,280,-302.5,-307.5,280,747.5,,,SBD,Raw,M,Open
2,Aaron Bennett,NY,82.5,81,,29,235,247.5,255,255,182.5,190,195,195,262.5,277.5,-282.5,277.5,727.5,,,SBD,Raw,M,Open
3,Connor Overstreet,AL,82.5,81.1,,26,245,260,272.5,272.5,152.5,157.5,-165,157.5,265,277.5,285,285,715,,,SBD,Raw,M,Open
4,Alex Marshall #2,GA,82.5,80.8,,22,217.5,235,247.5,247.5,162.5,170,-177.5,170,237.5,257.5,272.5,272.5,690,,,SBD,Raw,M,Open
5,David Chauvin,LA,82.5,80.2,,21,230,242.5,252.5,252.5,147.5,155,-162.5,155,260,-272.5,-277.5,260,667.5,,,SBD,Raw,M,Open
6,Keathon Malone,TN,82.5,80.4,,28,217.5,235,-242.5,235,135,142.5,-150,142.5,242.5,260,-275,260,637.5,,,SBD,Raw,M,Open
7,Chris Holcomb,TX,82.5,81.9,,42,222.5,237.5,245,245,140,150,155,155,217.5,227.5,235,235,635,,,SBD,Raw,M,Open
8,Michael Cherry,GA,82.5,80.6,,35,165,182.5,190,190,-155,-155,155,155,227.5,250,-272.5,250,595,,,SBD,Raw,M,Open
9,Grant Smith,TX,82.5,81.1,,62,-150,150,165,165,135,-148,-148,135,215,230,-235,230,530,,,SBD,Raw,M,Open
1,Beau Hebert,LA,90,89.4,,27,-272.5,282.5,295,295,167.5,-172.5,172.5,172.5,270,285,-300,285,752.5,,,SBD,Raw,M,Open
2,Ethan Yodanza,LA,90,88.7,,20,-255,267.5,-280,267.5,170,-177.5,-177.5,170,-280,295,302.5,302.5,740,,,SBD,Raw,M,Open
3,Vashon Perryman,VA,90,84.1,,37,255,267.5,-280,267.5,-147.5,147.5,-155,147.5,-287.5,295,-312.5,295,710,,,SBD,Raw,M,Open
4,Harrison Stockwell,NC,90,89.6,,24,232.5,-252.5,-252.5,232.5,157.5,165,170,170,275,295,-310,295,697.5,,,SBD,Raw,M,Open
5,Jason Guillot,LA,90,86.5,,23,225,240,250,250,135,145,155,155,260,275,290,290,695,,,SBD,Raw,M,Open
6,Steven Luminais,LA,90,87.9,,33,227.5,235,-237.5,235,152.5,160,-162.5,160,267.5,280,-287.5,280,675,,,SBD,Raw,M,Open
7,Dariyen Naranjo,LA,90,87.4,,20,-225,225,247.5,247.5,135,142.5,152.5,152.5,240,252.5,260,260,660,,,SBD,Raw,M,Open
8,Charles Orsborne,SC,90,87.5,,20,217.5,240,-257.5,240,140,-155,-155,140,280,-308,-308,280,660,,,SBD,Raw,M,Open
9,Aaron Rose,WA,90,89.6,,29,240,250,-260,250,145,150,-155,150,250,-272.5,-272.5,250,650,,,SBD,Raw,M,Open
10,Antoine Bonner,TX,90,89.9,,36,230,235,,235,130,-145,-145,130,272.5,-285,,272.5,637.5,,,SBD,Raw,M,Open
11,Michael Dodson,TX,90,88.5,,37,-205,205,-227.5,205,145,147.5,-157.5,147.5,250,255,-272.5,255,607.5,,,SBD,Raw,M,Open
DQ,Dylan McGregor,MS,90,89.6,,24,280,287.5,-295,287.5,-167.5,-175,-175,,,,,,,,,SBD,Raw,M,Open
1,Roy Jackson,AL,100,93.5,,39,255,275,287.5,287.5,205,217.5,227.5,227.5,295,317.5,332.5,332.5,847.5,,,SBD,Raw,M,Open
2,Chris Jae,TX,100,96.6,,28,282.5,-297.5,297.5,297.5,190,-200,200,200,317.5,340,-362.5,340,837.5,,,SBD,Raw,M,Open
3,Peter Ulbrich,GA,100,97.3,,24,260,275,287.5,287.5,167.5,-172.5,-172.5,167.5,275,292.5,-302.5,292.5,747.5,,,SBD,Raw,M,Open
4,Justin Robinson #2,FL,100,98.5,,38,235,255,272.5,272.5,147.5,160,165,165,-272.5,295,-305,295,732.5,,,SBD,Raw,M,Open
5,Chase Gill,KY,100,100,,19,250,265,272.5,272.5,155,167.5,-172.5,167.5,265,277.5,-285,277.5,717.5,,,SBD,Raw,M,Open
6,Abraham Salako,RI,100,97.6,,23,245,260,-272.5,260,142.5,152.5,160,160,275,-290,-310,275,695,,,SBD,Raw,M,Open
7,Jaylen Griffith,LA,100,98.2,,23,-207.5,207.5,237.5,237.5,130,140,147.5,147.5,252.5,275,290,290,675,,,SBD,Raw,M,Open
8,Tyler Pitt,WA,100,98.9,,30,190,210,220,220,-115,125,132.5,132.5,240,270,285,285,637.5,,,SBD,Raw,M,Open
9,Miguel Lau Jr,LA,100,98.1,,26,217.5,230,235,235,135,142.5,-145,142.5,227.5,245,252.5,252.5,630,,,SBD,Raw,M,Open
10,Andy Quintana,CA,100,95.7,,32,210,-235,235,235,140,-155,-160,140,220,240,-260,240,615,,,SBD,Raw,M,Open
11,Rogelio Giner,TX,100,97.5,,29,-197.5,-200,200,200,150,-155,155,155,242.5,255,260,260,615,,,SBD,Raw,M,Open
12,Bradley Brothers,NM,100,96.8,,45,160,185,-187.5,185,165,177.5,182.5,182.5,200,222.5,-230,222.5,590,,,SBD,Raw,M,Open
DQ,Phil Baker,TX,100,97.1,,31,-280,-280,-280,,,,,,,,,,,,,SBD,Raw,M,Open
1,Demerrius Slocum,LA,110,101.4,,37,327.5,347.5,355,355,220,-230,230,230,305,327.5,-335,327.5,912.5,,,SBD,Raw,M,Open
2,Ryan Andujar,AL,110,106.8,,30,305,322.5,-335,322.5,197.5,210,-222.5,210,327.5,-347.5,-347.5,327.5,860,,,SBD,Raw,M,Open
3,Mitch Roe,LA,110,108.2,,24,275,295,317.5,317.5,175,185,192.5,192.5,277.5,290,300,300,810,,,SBD,Raw,M,Open
4,Lamar Holmes,LA,110,107.6,,32,275,282.5,287.5,287.5,182.5,-187.5,-187.5,182.5,317.5,325,-332.5,325,795,,,SBD,Raw,M,Open
5,Ryan Kimball,LA,110,110,,36,252.5,262.5,,262.5,-202.5,202.5,-205,202.5,305,322.5,330,330,795,,,SBD,Raw,M,Open
6,Demetrius Kelley,OK,110,106.2,,37,282.5,292.5,300,300,-180,180,182.5,182.5,290,302.5,310,310,792.5,,,SBD,Raw,M,Open
7,Eli Latiolais,LA,110,109.9,,18,272.5,287.5,302.5,302.5,165,175,182.5,182.5,262.5,277.5,287.5,287.5,772.5,,,SBD,Raw,M,Open
8,Simon Menard,LA,110,109,,31,-242.5,242.5,-255,242.5,200,-210,-210,200,320,-327.5,-327.5,320,762.5,,,SBD,Raw,M,Open
9,Rock Hoffman,NY,110,110,,25,245,265,280,280,160,175,185,185,290,-310,-310,290,755,,,SBD,Raw,M,Open
10,Jonathan Walker,TX,110,108.8,,28,247.5,250,260,260,165,-175,175,175,270,280,285,285,720,,,SBD,Raw,M,Open
11,Millard Peacock,AL,110,107.1,,47,-227.5,240,-250,240,177.5,182.5,187.5,187.5,-275,290,-295,290,717.5,,,SBD,Raw,M,Open
12,Jacen Hancock,SD,110,109.2,,26,237.5,252.5,277.5,277.5,-152.5,162.5,-182.5,162.5,245,-265,-285,245,685,,,SBD,Raw,M,Open
13,Dominic Mckinnon,TN,110,107.2,,26,232.5,-252.5,-252.5,232.5,127.5,137.5,142.5,142.5,265,285,307.5,307.5,682.5,,,SBD,Raw,M,Open
14,Travis Kreuzberger,SC,110,104.6,,33,227.5,245,-257.5,245,142.5,150,155,155,230,237.5,-257.5,237.5,637.5,,,SBD,Raw,M,Open
15,Tom Alspaugh,FL,110,102.1,,50,175,185,200,200,150,160,-170,160,-235,235,255,255,615,,,SBD,Raw,M,Open
16,Justin Zellner,TN,110,105.6,,26,235,252.5,262.5,262.5,157.5,167.5,177.5,177.5,100,,,100,540,,,SBD,Raw,M,Open
DQ,Roger Strick,AL,110,107.6,,25,265,280,290,290,-195,195,207.5,207.5,-307.5,-307.5,-307.5,,,,,SBD,Raw,M,Open
1,Robert Knutsson,OH,125,124.5,,35,350,-367.5,,350,-215,215,,215,375,-390,-390.5,375,940,,,SBD,Raw,M,Open
2,Ryan Tromm,KY,125,122.5,,27,310,325,330,330,215,227.5,-230,227.5,-317.5,337.5,350,350,907.5,,,SBD,Raw,M,Open
3,Kenneth Zimmerman,OH,125,113.1,,27,-310,310,-320,310,215,225,-227.5,225,335,-345,-345,335,870,,,SBD,Raw,M,Open
4,Joseph Garcia,CO,125,116.7,,25,-310,317.5,-332.5,317.5,197.5,205,-207.5,205,-305,305,327.5,327.5,850,,,SBD,Raw,M,Open
5,John Morris #7,ID,125,111.4,,29,285,312.5,327.5,327.5,185,-205,207.5,207.5,310,-342.5,-342.5,310,845,,,SBD,Raw,M,Open
6,Tyler Cummings,GA,125,115.5,,32,-292.5,292.5,312.5,312.5,205,-222.5,,205,-292.5,300,-310,300,817.5,,,SBD,Raw,M,Open
7,Matt Imwalle,CA,125,120.9,,40,260,272.5,280,280,167.5,185,190,190,300,-320,-327.5,300,770,,,SBD,Raw,M,Open
8,Justin Hurley #1,GA,125,119.1,,35,265,282.5,290,290,115,122.5,132.5,132.5,272.5,287.5,-305,287.5,710,,,SBD,Raw,M,Open
9,Dominic Maldonado,LA,125,123.7,,17,252.5,260,-270,260,147.5,155,-160,155,260,285.5,-290,285.5,700.5,,,SBD,Raw,M,Open
10,Paul Baxter,LA,125,121.1,,23,-265,265,270,270,160,165,167.5,167.5,245,260,-265,260,697.5,,,SBD,Raw,M,Open
11,Ryan Haigh,SC,125,124.3,,21,-235,240,-252.5,240,192.5,-202.5,-202.5,192.5,252.5,-262.5,-267.5,252.5,685,,,SBD,Raw,M,Open
12,Derek Hellwig,AZ,125,122,,29,220,-240,247.5,247.5,160,167.5,175,175,225,245,255,255,677.5,,,SBD,Raw,M,Open
1,Brian Carter,KY,140,126.5,,24,-300,300,315,315,200,215,-222.5,215,337.5,355,-362.5,355,885,,,SBD,Raw,M,Open
2,Ricardo Russell,GA,140,138.5,,38,265,285,295,295,222.5,235,-242.5,235,275,317.5,-322.5,317.5,847.5,,,SBD,Raw,M,Open
3,Richard Culver,AL,140,137.5,,41,265,-277.5,277.5,277.5,192.5,205.5,,205.5,292.5,315,-325,315,798,,,SBD,Raw,M,Open
4,Hart Mizell,GA,140,125.3,,31,265,282.5,292.5,292.5,175,185,192.5,192.5,272.5,-290,295,295,780,,,SBD,Raw,M,Open
5,Jamie Shifflett,MD,140,127,,53,247.5,257.5,-270,257.5,220,227.5,-235,227.5,260,272.5,-280,272.5,757.5,,,SBD,Raw,M,Open
6,Edward Moore,VA,140,134.9,,52,250,272.5,-287.5,272.5,160,172.5,182.5,182.5,227.5,-242.5,-260,227.5,682.5,,,SBD,Raw,M,Open
7,Rashod Albert,LA,140,136.1,,32,207.5,-220,230,230,150,157.5,160,160,245,260,272.5,272.5,662.5,,,SBD,Raw,M,Open
8,Eric Carter,KY,140,132.1,,25,317.5,-332.5,-337.5,317.5,75,,,75,75,,,75,467.5,,,SBD,Raw,M,Open
1,Khodee Sterrett,TN,140+,146.9,,26,-272.5,272.5,-307.5,272.5,175,185,-195,185,287.5,310,-332.5,310,767.5,,,SBD,Raw,M,Open
2,Geomar Jaramillo,,140+,165.6,,42,222.5,237.5,-250,237.5,190,197.5,202.5,202.5,317.5,-338,-338,317.5,757.5,,,SBD,Raw,M,Open
3,Micheal Lucero,CA,140+,144.3,,28,275,292.5,317.5,317.5,185,-212.5,-212.5,185,250,-275,-280,250,752.5,,,SBD,Raw,M,Open
4,Brian Patterson,NY,140+,149.2,,24,242.5,257.5,-272.5,257.5,177.5,187.5,-195,187.5,260,-280,-285,260,705,,,SBD,Raw,M,Open
DQ,Zebulun Drake,MS,140+,143.1,,28,-320,-375,-375,,,,,,,,,,,,,SBD,Raw,M,Open
1,Paul Remedios,LA,67.5,66.2,,37,160,170,177.5,177.5,117.5,125,132.5,132.5,200,210,220,220,530,,,SBD,Raw,M,Submasters 35-39
1,Thomas Knight,SC,75,74.3,,37,207.5,225,-235.5,225,125,130,-137.5,130,200,232.5,-245,232.5,587.5,,,SBD,Raw,M,Submasters 35-39
1,Sigfrido Bobonis,CA,82.5,78.9,,36,220,232.5,-237.5,232.5,155,165,170,170,227.5,242.5,250,250,652.5,,,SBD,Raw,M,Submasters 35-39
2,Michael Cherry,GA,82.5,80.6,,35,165,182.5,190,190,-155,-155,155,155,227.5,250,-272.5,250,595,,,SBD,Raw,M,Submasters 35-39
1,Antoine Bonner,TX,90,89.9,,36,230,235,,235,130,-145,-145,130,272.5,-285,,272.5,637.5,,,SBD,Raw,M,Submasters 35-39
2,Michael Paul,VA,90,89.7,,38,220,-227.5,227.5,227.5,-137.5,137.5,-140,137.5,242.5,250,-260,250,615,,,SBD,Raw,M,Submasters 35-39
3,Michael Dodson,TX,90,88.5,,37,-205,205,-227.5,205,145,147.5,-157.5,147.5,250,255,-272.5,255,607.5,,,SBD,Raw,M,Submasters 35-39
1,Roy Jackson,AL,100,93.5,,39,255,275,287.5,287.5,205,217.5,227.5,227.5,295,317.5,332.5,332.5,847.5,,,SBD,Raw,M,Submasters 35-39
2,Justin Robinson #2,FL,100,98.5,,38,235,255,272.5,272.5,147.5,160,165,165,-272.5,295,-305,295,732.5,,,SBD,Raw,M,Submasters 35-39
3,William Butler,LA,100,97.9,,37,205,-217.5,227.5,227.5,137.5,142.5,150,150,247.5,262.5,272.5,272.5,650,,,SBD,Raw,M,Submasters 35-39
1,Ryan Kimball,LA,110,110,,36,252.5,262.5,,262.5,-202.5,202.5,-205,202.5,305,322.5,330,330,795,,,SBD,Raw,M,Submasters 35-39
2,Demetrius Kelley,OK,110,106.2,,37,282.5,292.5,300,300,-180,180,182.5,182.5,290,302.5,310,310,792.5,,,SBD,Raw,M,Submasters 35-39
3,Aaron Toldi,LA,110,107.3,,36,205,217.5,227.5,227.5,152.5,-160,160,160,220,237.5,250,250,637.5,,,SBD,Raw,M,Submasters 35-39
1,Ricardo Russell,GA,140,138.5,,38,265,285,295,295,222.5,235,-242.5,235,275,317.5,-322.5,317.5,847.5,,,SBD,Raw,M,Submasters 35-39
2,Jeremiah Soriez,LA,140,138.4,,38,-270,280,292.5,292.5,195,207.5,-210,207.5,260,-272.5,272.5,272.5,772.5,,,SBD,Raw,M,Submasters 35-39
1,William Topps,AL,140+,166.2,,37,-205,220,235,235,192.5,-200,-200,192.5,245,-260,265,265,692.5,,,SBD,Raw,M,Submasters 35-39
1,Cole Lavergne,LA,67.5,67.4,,40,-177.5,177.5,187.5,187.5,125,130,-132.5,130,215,227.5,-232.5,227.5,545,,,SBD,Raw,M,Masters 40-44
2,Pat Yandow,NY,67.5,67.3,,42,162.5,167.5,-170,167.5,97.5,-102.5,-102.5,97.5,185,192.5,195,195,460,,,SBD,Raw,M,Masters 40-44
1,Gerald Green,LA,75,73.6,,42,205,231.5,235,235,142.5,152.5,155,155,262.5,285,292.5,292.5,682.5,,,SBD,Raw,M,Masters 40-44
2,Ray Rivera,NC,75,73.6,,42,-165,-165,165,165,100,105,107.5,107.5,180,200,210,210,482.5,,,SBD,Raw,M,Masters 40-44
1,Chris Lentini #1,AL,75,74.7,,46,217.5,227.5,-237.5,227.5,165,173,-177.5,173,250,-262.5,-262.5,250,650.5,,,SBD,Raw,M,Masters 45-49
2,William Torres,LA,75,73.6,,46,180,192.5,195,195,112.5,117.5,120,120,192.5,202.5,207.5,207.5,522.5,,,SBD,Raw,M,Masters 45-49
1,Richi Carni,CO,75,74.9,,59,137.5,-142.5,142.5,142.5,97.5,100,-102.5,100,147.5,-175,175,175,417.5,,,SBD,Raw,M,Masters 55-59
1,Mark Moreland,GA,75,74.7,,64,-160,160,-172.5,160,125,132.5,137.5,137.5,172.5,180,185,185,482.5,140,,SBD,Raw,M,Masters 60-64
1,Chris Holcomb,TX,82.5,81.9,,42,222.5,237.5,245,245,140,150,155,155,217.5,227.5,235,235,635,,,SBD,Raw,M,Masters 40-44
1,Darrel Dryden,NM,82.5,79.7,,47,187.5,210,-228.5,210,155,165,-170,165,227.5,-250,,227.5,602.5,,,SBD,Raw,M,Masters 45-49
1,Grant Smith,TX,82.5,81.1,,62,-150,150,165,165,135,-148,-148,135,215,230,-235,230,530,,,SBD,Raw,M,Masters 60-64
2,Jeff Denson,LA,82.5,79.9,,62,125,135,-147.5,135,120,-122.5,-122.5,120,175,182.5,-202.5,182.5,437.5,,,SBD,Raw,M,Masters 60-64
1,Richard Wittmann,GA,82.5,81.7,,67,100,115,125,125,123,-130.5,130.5,130.5,170,190,205,205,460.5,,,SBD,Raw,M,Masters 65-69
2,Mike Johanns,TX,82.5,80.5,,68,120,130,137.5,137.5,85,90,-100,90,145,152.5,160,160,387.5,,,SBD,Raw,M,Masters 65-69
1,Paul Hansen,KS,82.5,80.7,,72,95,-102.5,105,105,105,-110,-110,105,150,165,170,170,380,,,SBD,Raw,M,Masters 70-74
1,Bradley Hamilton,FL,90,84.1,,43,175,195,,195,120,135,,135,190,212.5,-215,212.5,542.5,,,SBD,Raw,M,Masters 40-44
1,Christopher Rountree,TX,90,89.3,,47,195,205,212.5,212.5,135,137.5,,137.5,175,200,,200,550,,,SBD,Raw,M,Masters 45-49
1,Trey Mcguire,WA,90,88.8,,53,220,-227.5,-227.5,220,137.5,145,-150,145,215,-222.5,-222.5,215,580,,,SBD,Raw,M,Masters 50-54
2,James Dibble,TN,90,88.2,,52,185,-200,-205,185,125,130,-132.5,130,225,240,247.5,247.5,562.5,,,SBD,Raw,M,Masters 50-54
1,Eddie Crum,TX,90,89.6,,58,167.5,172.5,180,180,117.5,122.5,127.5,127.5,215,227.5,232.5,232.5,540,,,SBD,Raw,M,Masters 55-59
2,David Hays,AL,90,88.2,,59,150,160,165,165,115,122.5,127.5,127.5,165,180,-185,180,472.5,,,SBD,Raw,M,Masters 55-59
3,Frank Lucente,OH,90,87.1,,56,-150,150,-167.5,150,110,-117.5,-117.5,110,195,205,-210,205,465,,,SBD,Raw,M,Masters 55-59
1,August Schmidt,AZ,100,98.4,,49,215,230,-240,230,157.5,165,-172.5,165,250,272.5,,272.5,667.5,,,SBD,Raw,M,Masters 45-49
2,Bradley Brothers,NM,100,96.8,,45,160,185,-187.5,185,165,177.5,182.5,182.5,200,222.5,-230,222.5,590,,,SBD,Raw,M,Masters 45-49
1,Mark Konen,TX,100,94.4,,67,152.5,157.5,-165,157.5,115,120,-125,120,202.5,210,215,215,492.5,,,SBD,Raw,M,Masters 65-69
2,Michael Brown #1,TN,100,98.1,,66,152.5,157.5,162.5,162.5,137.5,142.5,145,145,170,182.5,-187.5,182.5,490,,,SBD,Raw,M,Masters 65-69
1,Bobby Whitten,SC,100,99.6,,73,-120,120,130,130,102.5,107.5,110,110,175,182.5,,182.5,422.5,,,SBD,Raw,M,Masters 70-74
1,DL Diltz,MN,100,97.7,,75,120,-135,135,135,107.5,122.5,-132.5,122.5,160,185,-200,185,442.5,,,SBD,Raw,M,Masters 75-79
1,Millard Peacock,AL,110,107.1,,47,-227.5,240,-250,240,177.5,182.5,187.5,187.5,-275,290,-295,290,717.5,,,SBD,Raw,M,Masters 45-49
2,Erik Whitfield,MS,110,100.9,,49,222.5,232.5,240,240,150,155,-160,155,245,250,,250,645,,,SBD,Raw,M,Masters 45-49
1,Terry Held,MO,110,108.3,,53,250,270,-275,270,185,195,-205.5,195,255,285,300,300,765,,,SBD,Raw,M,Masters 50-54
2,Tom Alspaugh,FL,110,102.1,,50,175,185,200,200,150,160,-170,160,-235,235,255,255,615,,,SBD,Raw,M,Masters 50-54
3,Jay Gousset,MS,110,107.2,,51,185,200,-210,200,160,172.5,-177.5,172.5,205,215,225,225,597.5,,,SBD,Raw,M,Masters 50-54
4,Michael Moon,WA,110,101,,51,200,210,-215,210,165,175,-180,175,200,210,-215,210,595,,,SBD,Raw,M,Masters 50-54
1,Brendan Burke,FL,110,107.5,,59,175,185,200,200,155,165,-172.5,165,215,232.5,-240,232.5,597.5,,,SBD,Raw,M,Masters 55-59
1,Dwayne Richardson,AL,110,109.8,,61,215,230,237.5,237.5,157.5,165,167.5,167.5,-227.5,227.5,255,255,660,,265,SBD,Raw,M,Masters 60-64
1,Ron Hester,PA,110,107.4,,65,-192.5,192.5,-205,192.5,185,187.5,-190,187.5,-200,210,-215,210,590,,,SBD,Raw,M,Masters 65-69
DQ,Steven Johnson #1,MI,110,105.6,,67,127.5,-140,142.5,142.5,-102.5,-107.5,-107.5,,,,,,,,,SBD,Raw,M,Masters 65-69
1,Erik Madsen,WA,110,106.8,,70,142.5,152.5,157.5,157.5,125,135,142.5,142.5,192.5,202.5,210,210,510,,,SBD,Raw,M,Masters 70-74
1,Robert Callender,MI,110,107.8,,77,145,155,165,165,130,135,-137.5,135,185,195,205,205,505,,,SBD,Raw,M,Masters 75-79
1,Matt Imwalle,CA,125,120.9,,40,260,272.5,280,280,167.5,185,190,190,300,-320,-327.5,300,770,,,SBD,Raw,M,Masters 40-44
2,Donald Hunt,CA,125,124,,43,215,232.5,242.5,242.5,175,187.5,195,195,215,235,-240,235,672.5,,,SBD,Raw,M,Masters 40-44
3,Michael Brown #32,TX,125,117.7,,41,212.5,220,230,230,167.5,182.5,-195,182.5,225,-235,-240,225,637.5,,,SBD,Raw,M,Masters 40-44
1,Reginald Walker,TN,125,122.1,,47,-230,232.5,242.5,242.5,175,182.5,-187.5,182.5,277.5,292.5,307.5,307.5,732.5,,,SBD,Raw,M,Masters 45-49
2,Chris Sexton,IL,125,116,,48,185,-197.5,207.5,207.5,137.5,147.5,152.5,152.5,182.5,197.5,207.5,207.5,567.5,,,SBD,Raw,M,Masters 45-49
1,Tim Womack,AL,125,115.8,,62,182.5,-192.5,-192.5,182.5,137.5,142.5,147.5,147.5,-215,215,227.5,227.5,557.5,,,SBD,Raw,M,Masters 60-64
1,Brian Byers,KS,125,121.5,,67,190,200.5,202.5,202.5,157.5,162.5,167.5,167.5,-235,245.5,-255,245.5,615.5,,,SBD,Raw,M,Masters 65-69
1,Richard Culver,AL,140,137.7,,41,265,-277.5,277.5,277.5,192.5,205.5,,205.5,292.5,315,-325,315,798,,,SBD,Raw,M,Masters 40-44
1,Jamie Shifflett,MD,140,127,,53,247.5,257.5,-270,257.5,220,227.5,-235,227.5,260,272.5,-280,272.5,757.5,,,SBD,Raw,M,Masters 50-54
2,Robert Schmidt #3,AK,140,131.4,,50,240,260,-275,260,197.5,207.5,212.5,212.5,-240,240,-275,240,712.5,,,SBD,Raw,M,Masters 50-54
3,Edward Moore,VA,140,134.9,,52,250,272.5,-287.5,272.5,160,172.5,182.5,182.5,227.5,-242.5,-260,227.5,682.5,,,SBD,Raw,M,Masters 50-54
1,Geomar Jaramillo,,140+,165.6,,42,222.5,237.5,-250,237.5,190,197.5,202.5,202.5,317.5,-338,-338,317.5,757.5,,,SBD,Raw,M,Masters 40-44
1,Jami Bozzuto,PA,60,58.7,,58,135,-147.5,147.5,147.5,80,85.5,87.5,87.5,142.5,-152.5,152.5,152.5,387.5,,,SBD,Wraps,F,Open
1,Carrie Barrieau,CA,48,46.7,,40,62.5,67.5,75,75,40,42.5,-47.5,42.5,85,90,92.5,92.5,210,,,SBD,Wraps,F,Masters 40-44
1,Jami Bozzuto,PA,60,58.7,,58,135,-147.5,147.5,147.5,80,85.5,87.5,87.5,142.5,-152.5,152.5,152.5,387.5,,,SBD,Wraps,F,Masters 55-59
1,Zachary McCaffery,LA,60,58.6,,18,142.5,155,-162.5,155,87.5,92.5,-95,92.5,210,-230,-232.5,210,457.5,,,SBD,Wraps,M,Juniors 18-19
DQ,Jack Kyte,AL,90,87.9,,20,-275,-275,-275,,,,,,,,,,,,,SBD,Wraps,M,Juniors 20-23
1,Hunter Stevens,GA,110,100.1,,23,240,-257.5,-257.5,240,150,160,-167.5,160,217.5,227.5,237.5,237.5,637.5,,,SBD,Wraps,M,Juniors 20-23
1,Kevin Chapman,MO,90,88.1,,47,262.5,272.5,-277.5,272.5,140,147.5,-152.5,147.5,260,-267.5,-267.5,260,680,,,SBD,Wraps,M,Open
1,Robbie Fox #1,AL,100,100,,32,300,312.5,-317.5,312.5,165,172.5,,172.5,252.5,260,-272.5,260,745,,,SBD,Wraps,M,Open
2,Benjamin Sattler,WV,100,96.9,,43,-260,260,-270,260,170,177.5,185,185,260,-275,280,280,725,,,SBD,Wraps,M,Open
3,Joseph Kammerer,TN,100,96.9,,28,215,232.5,-250,232.5,152.5,-162.5,162.5,162.5,245,262.5,-272.5,262.5,657.5,,,SBD,Wraps,M,Open
4,Myreon Dunn,GA,100,94.6,,40,-235,235,240,240,145,150,-157.5,150,237.5,247.5,255,255,645,,,SBD,Wraps,M,Open
5,JD Johnson,OK,100,98.6,,31,-210,210,-220,210,167.5,175,-177.5,175,237.5,250,-257.5,250,635,,,SBD,Wraps,M,Open
1,Azariah Pierce,LA,110,102,,30,290,310,,310,195,205,-210,205,-355,-355,355,355,870,,,SBD,Wraps,M,Open
2,Adam Gibson,OK,110,103.7,,32,247,257.5,265,265,152.5,165,-170,165,272.5,285,290,290,720,,,SBD,Wraps,M,Open
DQ,Aaron Hodges,TX,110,109.4,,29,-207.5,-207.5,-207.5,,-155,,,,,,,,,,,SBD,Wraps,M,Open
1,Austen Horton,TX,125,124.4,,46,280,-292.5,300,300,125,137.5,,137.5,-295,-295,295,295,732.5,,,SBD,Wraps,M,Open
2,Frank Miller,OK,125,116.5,,39,240,262.5,277.5,277.5,160,162.5,175,175,240,255,-265,255,707.5,,,SBD,Wraps,M,Open
3,Zachary Lever,TN,125,110.1,,22,272.5,295,-302.5,295,132.5,140,-147.5,140,240,257.5,265,265,700,,,SBD,Wraps,M,Open
4,Roman Pizzolato,LA,125,123.4,,42,230,240,245,245,130,137.5,147.5,147.5,205,215,220,220,612.5,,,SBD,Wraps,M,Open
1,Cameron Clark,CA,100,96.9,,39,242.5,-255,,242.5,175,180,182.5,182.5,275,285,,285,710,,,SBD,Wraps,M,Submasters 35-39
1,Frank Miller,OK,125,116.5,,39,240,262.5,277.5,277.5,160,162.5,175,175,240,255,-265,255,707.5,,,SBD,Wraps,M,Submasters 35-39
1,Tim O'Brien #1,FL,82.5,77.4,,57,185,195,202.5,202.5,117.5,125,130,130,187.5,197.5,202.5,202.5,535,,,SBD,Wraps,M,Masters 55-59
1,Kevin Chapman,MO,90,88.1,,47,262.5,272.5,-277.5,272.5,140,147.5,-152.5,147.5,260,-267.5,-267.5,260,680,,,SBD,Wraps,M,Masters 45-49
1,Michael Mercola,LA,90,89.9,,55,220,235,242.5,242.5,165,176,-180,176,255,267.5,275.5,275.5,694,,,SBD,Wraps,M,Masters 55-59
2,Roger Fox,MS,90,87.5,,57,-177.5,177.5,185,185,130,137.5,-140,137.5,195,205,207.5,207.5,530,,,SBD,Wraps,M,Masters 55-59
1,Benjamin Sattler,WV,100,96.9,,43,-260,260,-270,260,170,177.5,185,185,260,-275,280,280,725,,,SBD,Wraps,M,Masters 40-44
2,Myreon Dunn,GA,100,94.6,,40,-235,235,240,240,145,150,-157.5,150,237.5,247.5,255,255,645,,,SBD,Wraps,M,Masters 40-44
1,Richie Pettifer,OK,100,95.3,,51,-192.5,192.5,-250,192.5,-142.5,142.5,-147.5,142.5,185,195,-205,195,530,,,SBD,Wraps,M,Masters 50-54
1,Clark Sandau,LA,100,94.7,,61,-180,195,-200,195,115,125,130,130,182.5,200,210,210,535,,,SBD,Wraps,M,Masters 60-64
1,Richard Landry #1,NY,100,96.6,,76,132.5,-143,-143,132.5,90,95,-100.5,95,160,-170,,160,387.5,,,SBD,Wraps,M,Masters 75-79
1,David Schilling,LA,110,108.6,,65,132.5,142.5,152.5,152.5,117.5,125,130,130,147.5,162.5,172.5,172.5,455,,,SBD,Wraps,M,Masters 65-69
1,Roman Pizzolato,LA,125,123.4,,42,230,240,245,245,130,137.5,147.5,147.5,205,215,220,220,612.5,,,SBD,Wraps,M,Masters 40-44
1,Austen Horton,TX,125,124.4,,46,280,-292.5,300,300,125,137.5,,137.5,-295,-295,295,295,732.5,,,SBD,Wraps,M,Masters 45-49
1,Randy Abendroth,TX,125,122.9,,67,225,230,237.5,237.5,137.5,140,142.5,142.5,-227.5,237.5,252.5,252.5,632.5,,,SBD,Wraps,M,Masters 65-69
1,Daniel Perales,TX,140,128.9,,40,-60,60,,60,230,238,-245,238,262.5,272.5,-285,272.5,570.5,,,SBD,Wraps,M,Masters 40-44
1,Robert Cross,AZ,140+,142.8,,56,230,-242.5,242.5,242.5,120,-127.5,-127.5,120,242.5,-250.5,-250.5,242.5,605,,,SBD,Wraps,M,Masters 55-59
1,Malahni Doyle,MS,90,87.2,,15,140,-145.5,147,147,67.5,-72.5,72.5,72.5,140,147.5,152.5,152.5,372,,,SBD,Single-ply,F,Juniors 13-15
1,Malahni Doyle,MS,90,87.2,,15,140,-145.5,147,147,67.5,-72.5,72.5,72.5,140,147.5,152.5,152.5,372,,,SBD,Single-ply,F,Open
1,Tyler Barrientez,TX,60,59.9,,17,-192.5,-192.5,192.5,192.5,102.5,105,112.5,112.5,185,190,-195,190,495,,,SBD,Single-ply,M,Juniors 16-17
1,Damon Scott #1,LA,75,73.5,,25,205,217.5,,217.5,132.5,150,160,160,210,222.5,242.5,242.5,620,,,SBD,Single-ply,M,Open
1,Codey Williams,OK,110,102.2,,27,285,-305,-305,285,215,232.5,-255,232.5,285,-305,305,305,822.5,,,SBD,Single-ply,M,Open
2,Richard Yarber,OK,110,108.7,,39,285,-305,-305,285,192.5,-215,-215,192.5,-285,305.5,-317.5,305.5,783,,,SBD,Single-ply,M,Open
1,Dwayne Meeks,AR,125,119.7,,58,312.5,-355,-355,312.5,187.5,-275,-275,187.5,275,282.5,-295,282.5,782.5,,,SBD,Single-ply,M,Open
2,Derek Cochran,GA,125,122.9,,48,250,-272.5,272.5,272.5,227.5,242.5,-252.5,242.5,237.5,257.5,-265,257.5,772.5,,,SBD,Single-ply,M,Open
1,Richard Yarber,OK,110,108.7,,39,285,-305,-305,285,192.5,-215,-215,192.5,-285,305.5,-317.5,305.5,783,,,SBD,Single-ply,M,Submasters 35-39
1,Timothy Baker,GA,110,108.2,,41,237.5,257.5,-262.5,257.5,182.5,-195,,182.5,232.5,255,-260,255,695,,,SBD,Single-ply,M,Masters 40-44
1,Shane Allm,TX,110,104.6,,53,-247.5,247.5,,247.5,165,180,,180,227.5,255,-262.5,255,682.5,,,SBD,Single-ply,M,Masters 50-54
1,Dr. Ken Jones,FL,110,101.5,,67,95,,,95,70,,,70,180,-215.5,,180,345,,,SBD,Single-ply,M,Masters 65-69
1,Henry Henington,MS,110,104.1,,81,-95,95,105,105,87.5,90,-92.5,90,120,128,133,133,328,,,SBD,Single-ply,M,Masters 80+
1,Brad Hill,AL,125,122.7,,44,-265,275,287.5,287.5,200,212.5,220,220,245,265,-272.5,265,772.5,,,SBD,Single-ply,M,Masters 40-44
1,Derek Cochran,GA,125,122.9,,48,250,-272.5,272.5,272.5,227.5,242.5,-252.5,242.5,237.5,257.5,-265,257.5,772.5,,,SBD,Single-ply,M,Masters 45-49
1,Dwayne Meeks,AR,125,119.7,,58,312.5,-355,-355,312.5,187.5,-275,-275,187.5,275,282.5,-295,282.5,782.5,,,SBD,Single-ply,M,Masters 55-59
1,Adena Malone,AL,67.5,67.1,,23,,,,,82.5,-87.5,-87.5,82.5,,,,,82.5,,,B,Raw,F,Juniors 20-23
1,Dylan Crenshaw,MS,82.5,80.8,,21,,,,,90,95,100,100,,,,,100,,,B,Raw,F,Juniors 20-23
1,Janet Montoya,MS,48,46.7,,24,,,,,45,47.5,52.5,52.5,,,,,52.5,,,B,Raw,F,Open
1,Rhonda Freeman,KS,56,55.9,,43,,,,,75,80,82.5,82.5,,,,,82.5,,,B,Raw,F,Open
1,Jami Bozzuto,PA,60,58.7,,58,,,,,80,85.5,87.5,87.5,,,,,87.5,,,B,Raw,F,Open
1,Paige Kimball,LA,67.5,66.6,,33,,,,,90,95,-97.5,95,,,,,95,,,B,Raw,F,Open
2,Adena Malone,AL,67.5,67.1,,23,,,,,82.5,-87.5,-87.5,82.5,,,,,82.5,,,B,Raw,F,Open
1,Jasmine Barber,GA,75,74.4,,32,,,,,107.5,115,122.5,122.5,,,,,122.5,,,B,Raw,F,Open
2,Jessica Skarin,LA,75,74.1,,41,,,,,85,90,95,95,,,,,95,,,B,Raw,F,Open
3,Elizabeth Wallace,GA,75,75,,34,,,,,87.5,-92.5,-92.5,87.5,,,,,87.5,,,B,Raw,F,Open
1,Dylan Crenshaw,MS,82.5,80.8,,21,,,,,90,95,100,100,,,,,100,,,B,Raw,F,Open
1,Sherri Schawo,TX,90,86.7,,61,,,,,102.5,110,115,115,,,,,115,120,,B,Raw,F,Open
1,Michelle Abram,WA,110,106.3,,53,,,,,115,120,122.5,122.5,,,,,122.5,125,,B,Raw,F,Open
1,Rhonda Freeman,KS,56,55.9,,43,,,,,75,80,82.5,82.5,,,,,82.5,,,B,Raw,F,Masters 40-44
1,Jami Bozzuto,PA,60,58.7,,58,,,,,80,85.5,87.5,87.5,,,,,87.5,,,B,Raw,F,Masters 55-59
1,Jessica Skarin,LA,75,74.1,,41,,,,,85,90,95,95,,,,,95,,,B,Raw,F,Masters 40-44
1,Barbara Taylor,CA,75,71.1,,65,,,,,105,-110,110,110,,,,,110,,,B,Raw,F,Masters 65-69
1,Tabetha Held,MO,82.5,78.4,,53,,,,,97.5,102.5,105.5,105.5,,,,,105.5,,,B,Raw,F,Masters 50-54
1,Leah Michael,LA,82.5,78.7,,68,,,,,97.5,105,110,110,,,,,110,,,B,Raw,F,Masters 65-69
1,Sherri Schawo,TX,90,86.7,,61,,,,,102.5,110,115,115,,,,,115,120,,B,Raw,F,Masters 60-64
1,Michelle Abram,WA,110,106.3,,53,,,,,115,120,122.5,122.5,,,,,122.5,125,,B,Raw,F,Masters 50-54
1,Ali Maatalla,MS,67.5,62.3,,21,,,,,-80,85,-87.5,85,,,,,85,,,B,Raw,M,Juniors 20-23
1,Timothy Pritt,VA,90,88.4,,19,,,,,150,160,165,165,,,,,165,,,B,Raw,M,Juniors 18-19
1,Eddie Webber,TX,67.5,65.1,,42,,,,,165,-175,-175,165,,,,,165,,,B,Raw,M,Open
2,Ali Maatalla,MS,67.5,62.3,,21,,,,,-80,85,-87.5,85,,,,,85,,,B,Raw,M,Open
1,Bobby Keys,TX,75,74.1,,50,,,,,-175.5,-187.5,187.5,187.5,,,,,187.5,192.5,,B,Raw,M,Open
1,Aaron Bennett,NY,82.5,81,,29,,,,,182.5,190,195,195,,,,,195,,,B,Raw,M,Open
2,Alexander Glover,NY,82.5,81.9,,32,,,,,150,160,165,165,,,,,165,,,B,Raw,M,Open
3,Michael Cherry,GA,82.5,80.6,,35,,,,,-155,-155,155,155,,,,,155,,,B,Raw,M,Open
4,Grant Smith,TX,82.5,81.1,,62,,,,,135,-148,-148,135,,,,,135,,,B,Raw,M,Open
1,Bobby Brown,AL,90,89.4,,41,,,,,157.5,165,170,170,,,,,170,,,B,Raw,M,Open
2,Sean Normand,GA,90,89.6,,44,,,,,152.5,160,-170,160,,,,,160,,,B,Raw,M,Open
1,Jim Smith #3,MS,100,97.6,,54,,,,,207.5,210,212.5,212.5,,,,,212.5,,,B,Raw,M,Open
2,Bradley Brothers,NM,100,96.8,,45,,,,,165,177.5,182.5,182.5,,,,,182.5,,,B,Raw,M,Open
3,JD Johnson,OK,100,98.6,,31,,,,,167.5,175,-177.5,175,,,,,175,,,B,Raw,M,Open
4,Armond Benoit,TX,100,94.8,,33,,,,,-172.5,172.5,-182.5,172.5,,,,,172.5,,,B,Raw,M,Open
5,Eric Downey,LA,100,98.3,,45,,,,,160,-172.5,,160,,,,,160,,,B,Raw,M,Open
DQ,Andrew Lorino,LA,100,99.2,,35,,,,,-207.5,-207.5,,,,,,,,,,B,Raw,M,Open
1,Azariah Pierce,LA,110,102,,30,,,,,195,205,-210,205,,,,,205,,,B,Raw,M,Open
2,Simon Menard,LA,110,109,,31,,,,,200,-210,-210,200,,,,,200,,,B,Raw,M,Open
3,Millard Peacock,AL,110,107.1,,47,,,,,177.5,182.5,187.5,187.5,,,,,187.5,,,B,Raw,M,Open
1,Kenneth Zimmerman,OH,125,113.1,,27,,,,,215,225,-227.5,225,,,,,225,,,B,Raw,M,Open
2,Dom Oramas,NY,125,120.9,,26,,,,,195,-207.5,-210,195,,,,,195,,,B,Raw,M,Open
3,Michael Cooley #1,CA,125,110.7,,47,,,,,150,155,160,160,,,,,160,,,B,Raw,M,Open
1,Ricardo Russell,GA,140,138.5,,38,,,,,222.5,235,-242.5,235,,,,,235,,,B,Raw,M,Open
2,Jamie Shifflett,MD,140,127,,53,,,,,220,227.5,-235,227.5,,,,,227.5,,,B,Raw,M,Open
3,Edward Moore,VA,140,134.9,,52,,,,,160,172.5,182.5,182.5,,,,,182.5,,,B,Raw,M,Open
1,Jacob Hutchinson,CA,140+,175.6,,49,,,,,212.5,220,-225,220,,,,,220,,,B,Raw,M,Open
1,Sigfrido Bobonis,CA,82.5,78.9,,36,,,,,155,165,170,170,,,,,170,,,B,Raw,M,Submasters 35-39
2,Michael Cherry,GA,82.5,80.6,,35,,,,,-155,-155,155,155,,,,,155,,,B,Raw,M,Submasters 35-39
DQ,Andrew Lorino,LA,100,99.2,,35,,,,,-207.5,-207.5,,,,,,,,,,B,Raw,M,Submasters 35-39
1,Ricardo Russell,GA,140,138.5,,38,,,,,222.5,235,-242.5,235,,,,,235,,,B,Raw,M,Submasters 35-39
1,Josef Morrow,MS,60,58.5,,40,,,,,120,-127.5,127.5,127.5,,,,,127.5,,,B,Raw,M,Masters 40-44
1,Stewart Miyashiro,HI,60,57.7,,69,,,,,65,-70,-70,65,,,,,65,,,B,Raw,M,Masters 65-69
1,Eddie Webber,TX,67.5,65.1,,42,,,,,165,-175,-175,165,,,,,165,,,B,Raw,M,Masters 40-44
1,Bobby Keys,TX,75,74.1,,50,,,,,-175.5,-187.5,187.5,187.5,,,,,187.5,192.5,,B,Raw,M,Masters 50-54
1,David Patterson #1,LA,75,74.7,,62,,,,,117.5,-125,125,125,,,,,125,,,B,Raw,M,Masters 60-64
1,Darrel Dryden,NM,82.5,79.7,,47,,,,,155,165,-170,165,,,,,165,,,B,Raw,M,Masters 45-49
2,Damon Ford,OK,82.5,81.7,,47,,,,,135,142.5,147.5,147.5,,,,,147.5,,,B,Raw,M,Masters 45-49
DQ,Michael Cooper,OK,82.5,82.5,,45,,,,,-193.5,-193.5,-193.5,,,,,,,,,B,Raw,M,Masters 45-49
1,Grant Smith,TX,82.5,81.1,,62,,,,,135,-148,-148,135,,,,,135,,,B,Raw,M,Masters 60-64
1,Richard Wittmann,GA,82.5,81.7,,67,,,,,123,-130.5,130.5,130.5,,,,,130.5,,,B,Raw,M,Masters 65-69
1,Paul Hansen,KS,82.5,80.7,,72,,,,,105,-110,-110,105,,,,,105,,,B,Raw,M,Masters 70-74
1,Bobby Brown,AL,90,89.4,,41,,,,,157.5,165,170,170,,,,,170,,,B,Raw,M,Masters 40-44
2,Sean Normand,GA,90,89.6,,44,,,,,152.5,160,-170,160,,,,,160,,,B,Raw,M,Masters 40-44
1,Perry Johnson,MS,90,88.1,,51,,,,,150,160,165,165,,,,,165,,,B,Raw,M,Masters 50-54
1,Dan Robbins,OK,90,89.1,,59,,,,,-120,120,-130,120,,,,,120,,,B,Raw,M,Masters 55-59
1,Nick D'Alessandro,FL,90,86.4,,69,,,,,97.5,102.5,107.5,107.5,,,,,107.5,,,B,Raw,M,Masters 65-69
1,Bradley Brothers,NM,100,96.8,,45,,,,,165,177.5,182.5,182.5,,,,,182.5,,,B,Raw,M,Masters 45-49
2,Eric Downey,LA,100,98.3,,45,,,,,160,-172.5,,160,,,,,160,,,B,Raw,M,Masters 45-49
1,Jim Smith #3,MS,100,97.6,,54,,,,,207.5,210,212.5,212.5,,,,,212.5,,,B,Raw,M,Masters 50-54
1,Joey Simpson,AL,100,98.3,,61,,,,,-122.5,127.5,137.5,137.5,,,,,137.5,,,B,Raw,M,Masters 60-64
2,Jimmy Toups,LA,100,97.8,,62,,,,,90,-105,-105,90,,,,,90,,,B,Raw,M,Masters 60-64
1,Bobby Whitten,SC,100,99.6,,73,,,,,102.5,107.5,110,110,,,,,110,,,B,Raw,M,Masters 70-74
1,Millard Peacock,AL,110,107.1,,47,,,,,177.5,182.5,187.5,187.5,,,,,187.5,,,B,Raw,M,Masters 45-49
1,Terry Held,MO,110,108.3,,53,,,,,185,195,-205.5,195,,,,,195,,,B,Raw,M,Masters 50-54
2,Michael Moon,WA,110,101,,51,,,,,165,175,-180,175,,,,,175,,,B,Raw,M,Masters 50-54
3,Jay Gousset,MS,110,107.2,,51,,,,,160,172.5,-177.5,172.5,,,,,172.5,,,B,Raw,M,Masters 50-54
1,Ron Hester,PA,110,107.4,,65,,,,,185,187.5,-190,187.5,,,,,187.5,,,B,Raw,M,Masters 65-69
1,Erik Madsen,WA,110,106.8,,70,,,,,125,135,142.5,142.5,,,,,142.5,,,B,Raw,M,Masters 70-74
1,Robert Callender,MI,110,107.8,,77,,,,,130,135,-137.5,135,,,,,135,,,B,Raw,M,Masters 75-79
1,Sidney Sison,MS,110,105.1,,83,,,,,102.5,107.5,112.5,112.5,,,,,112.5,115,,B,Raw,M,Masters 80+
1,Jason Ballard,AL,125,115.9,,42,,,,,185,192.5,195,195,,,,,195,,,B,Raw,M,Masters 40-44
2,Donald Hunt,CA,125,124,,43,,,,,175,187.5,195,195,,,,,195,,,B,Raw,M,Masters 40-44
3,Michael Brown #32,TX,125,117.7,,41,,,,,167.5,182.5,-195,182.5,,,,,182.5,,,B,Raw,M,Masters 40-44
1,Michael Cooley #1,CA,125,110.7,,47,,,,,150,155,160,160,,,,,160,,,B,Raw,M,Masters 45-49
1,Eugene Malbrough,TX,125,123.2,,53,,,,,200,-207.5,-207.5,200,,,,,200,,,B,Raw,M,Masters 50-54
1,Dr Charles Lambert,IN,125,121.3,,58,,,,,130,147.5,-150,147.5,,,,,147.5,,,B,Raw,M,Masters 55-59
1,Daniel Perales,TX,140,128.9,,40,,,,,230,238,-245,238,,,,,238,,,B,Raw,M,Masters 40-44
1,Jamie Shifflett,MD,140,127,,53,,,,,220,227.5,-235,227.5,,,,,227.5,,,B,Raw,M,Masters 50-54
2,Edward Moore,VA,140,134.9,,52,,,,,160,172.5,182.5,182.5,,,,,182.5,,,B,Raw,M,Masters 50-54
1,Jacob Hutchinson,CA,140+,175.6,,49,,,,,212.5,220,-225,220,,,,,220,,,B,Raw,M,Masters 45-49
1,Codey Williams,OK,110,102.2,,27,,,,,215,232.5,-255,232.5,,,,,232.5,,,B,Single-ply,M,Open
2,Richard Yarber,OK,110,108.7,,39,,,,,192.5,-215,-215,192.5,,,,,192.5,,,B,Single-ply,M,Open
1,Richard Yarber,OK,110,108.7,,39,,,,,192.5,-215,-215,192.5,,,,,192.5,,,B,Single-ply,M,Submasters 35-39
1,Henry Henington,MS,110,104.1,,81,,,,,87.5,90,-92.5,90,,,,,90,,,B,Single-ply,M,Masters 80+
1,Lia Davis,MD,100,97.5,,23,,,,,,,,,130,135,,135,135,,,D,Raw,F,Juniors 20-23
1,Janet Montoya,MS,48,46.7,,24,,,,,,,,,125,132.5,137.5,137.5,137.5,,,D,Raw,F,Open
1,Chrissy Gibson,OK,56,55.5,,42,,,,,,,,,115,-132.5,132.5,132.5,132.5,,,D,Raw,F,Open
1,Michelle Mazulis,NM,67.5,67,,54,,,,,,,,,175,182.5,185,185,185,,,D,Raw,F,Open
2,Paige Kimball,LA,67.5,66.6,,33,,,,,,,,,172.5,182.5,-195,182.5,182.5,,,D,Raw,F,Open
1,Jasmine Barber,GA,75,74.4,,32,,,,,,,,,125,155,172.5,172.5,172.5,,,D,Raw,F,Open
2,Elizabeth Wallace,GA,75,75,,34,,,,,,,,,150,167.5,-182.5,167.5,167.5,,,D,Raw,F,Open
3,Jessica Skarin,LA,75,74.1,,41,,,,,,,,,145,152.5,-165,152.5,152.5,,,D,Raw,F,Open
1,Lia Davis,MD,100,97.5,,23,,,,,,,,,130,135,,135,135,,,D,Raw,F,Open
1,Michelle Abram,WA,110,106.3,,53,,,,,,,,,175,185,195,195,195,,,D,Raw,F,Open
1,Julie Tadlock,OR,52,51.4,,51,,,,,,,,,102.5,105,107.5,107.5,107.5,,110,D,Raw,F,Masters 50-54
1,Chrissy Gibson,OK,56,55.5,,42,,,,,,,,,115,-132.5,132.5,132.5,132.5,,,D,Raw,F,Masters 40-44
1,Michelle Mazulis,NM,67.5,67,,54,,,,,,,,,175,182.5,185,185,185,,,D,Raw,F,Masters 50-54
1,Jessica Skarin,LA,75,74.1,,41,,,,,,,,,145,152.5,-165,152.5,152.5,,,D,Raw,F,Masters 40-44
1,Barbara Taylor,CA,75,71.1,,65,,,,,,,,,160,175,187.5,187.5,187.5,,,D,Raw,F,Masters 65-69
1,Leah Michael,LA,82.5,78.7,,68,,,,,,,,,150,170,-185,170,170,,,D,Raw,F,Masters 65-69
1,Michelle Abram,WA,110,106.3,,53,,,,,,,,,175,185,195,195,195,,,D,Raw,F,Masters 50-54
1,Ethan Nguyen #5,LA,52,51.2,,19,,,,,,,,,102.5,-110,110,110,110,,,D,Raw,M,Juniors 18-19
1,Zachary McCaffery,LA,60,58.6,,18,,,,,,,,,210,-230,-232.5,210,210,,,D,Raw,M,Juniors 18-19
1,Tuan Ha,GA,67.5,63,,16,,,,,,,,,215,-227.5,-237.5,215,215,,,D,Raw,M,Juniors 16-17
1,Ali Maatalla,MS,67.5,62.3,,21,,,,,,,,,205,212.5,215,215,215,,,D,Raw,M,Juniors 20-23
1,Cameron White,TN,75,68.5,,16,,,,,,,,,-210,227.5,-243,227.5,227.5,,,D,Raw,M,Juniors 16-17
1,Timothy Pritt,VA,90,88.4,,19,,,,,,,,,267.5,277.5,287.5,287.5,287.5,,,D,Raw,M,Juniors 18-19
1,Kyle Robinson,FL,90,86.2,,23,,,,,,,,,275,285,290,290,290,,,D,Raw,M,Juniors 20-23
2,Charles Orsborne,SC,90,87.5,,20,,,,,,,,,280,-308,-308,280,280,,,D,Raw,M,Juniors 20-23
1,Eli Janes,MS,100,97.6,,19,,,,,,,,,210,222.5,-235,222.5,222.5,,,D,Raw,M,Juniors 18-19
1,Ali Maatalla,MS,67.5,62.3,,21,,,,,,,,,205,212.5,215,215,215,,,D,Raw,M,Open
2,Trevor Gilmore,LA,67.5,64.5,,28,,,,,,,,,197.5,207.5,-217.5,207.5,207.5,,,D,Raw,M,Open
1,Richard Giglio,NY,75,75,,26,,,,,,,,,227.5,240,257.5,257.5,257.5,,,D,Raw,M,Open
1,Alexander Glover,NY,82.5,81.9,,32,,,,,,,,,-275,285,-290,285,285,,,D,Raw,M,Open
2,Michael Cherry,GA,82.5,80.6,,35,,,,,,,,,227.5,250,-272.5,250,250,,,D,Raw,M,Open
1,Vashon Perryman,VA,90,84.1,,37,,,,,,,,,-287.5,295,-312.5,295,295,,,D,Raw,M,Open
2,Charles Orsborne,SC,90,87.5,,20,,,,,,,,,280,-308,-308,280,280,,,D,Raw,M,Open
1,Bob Hester,TX,100,97.3,,50,,,,,,,,,307.5,-322.5,-322.5,307.5,307.5,,,D,Raw,M,Open
2,Justin Robinson #2,FL,100,98.5,,38,,,,,,,,,-272.5,295,-305,295,295,,,D,Raw,M,Open
3,JD Johnson,OK,100,98.6,,31,,,,,,,,,237.5,250,-257.5,250,250,,,D,Raw,M,Open
1,Simon Menard,LA,110,109,,31,,,,,,,,,320,-327.5,-327.5,320,320,,,D,Raw,M,Open
2,Adam Gibson,OK,110,103.7,,32,,,,,,,,,272.5,285,290,290,290,,,D,Raw,M,Open
3,Millard Peacock,AL,110,107.1,,47,,,,,,,,,-275,290,-295,290,290,,,D,Raw,M,Open
1,Robert Knutsson,OH,125,124.5,,35,,,,,,,,,375,-390,-390.5,375,375,,,D,Raw,M,Open
2,Kenneth Zimmerman,OH,125,113.1,,27,,,,,,,,,335,-345,-345,335,335,,,D,Raw,M,Open
3,John Morris #7,ID,125,111.4,,29,,,,,,,,,310,-342.5,-342.5,310,310,,,D,Raw,M,Open
4,Matt Imwalle,CA,125,120.9,,40,,,,,,,,,300,-320,-327.5,300,300,,,D,Raw,M,Open
5,Austen Horton,TX,125,124.4,,46,,,,,,,,,-295,-295,295,295,295,,,D,Raw,M,Open
6,Dom Oramas,NY,125,120.9,,26,,,,,,,,,250,272.5,-295,272.5,272.5,,,D,Raw,M,Open
1,Ricardo Russell,GA,140,138.5,,38,,,,,,,,,275,317.5,-322.5,317.5,317.5,,,D,Raw,M,Open
1,Geomar Jaramillo,,140+,165.6,,42,,,,,,,,,317.5,-338,-338,317.5,317.5,,,D,Raw,M,Open
1,Michael Cherry,GA,82.5,80.6,,35,,,,,,,,,227.5,250,-272.5,250,250,,,D,Raw,M,Submasters 35-39
1,Michael Paul,VA,90,89.7,,38,,,,,,,,,242.5,250,-260,250,250,,,D,Raw,M,Submasters 35-39
1,Justin Robinson #2,FL,100,98.5,,38,,,,,,,,,-272.5,295,-305,295,295,,,D,Raw,M,Submasters 35-39
1,Ricardo Russell,GA,140,138.5,,38,,,,,,,,,275,317.5,-322.5,317.5,317.5,,,D,Raw,M,Submasters 35-39
1,Darrel Dryden,NM,82.5,79.7,,47,,,,,,,,,227.5,-250,,227.5,227.5,,,D,Raw,M,Masters 45-49
1,Richard Wittmann,GA,82.5,81.7,,67,,,,,,,,,170,190,205,205,205,,,D,Raw,M,Masters 65-69
1,Christopher Rountree,TX,90,89.3,,47,,,,,,,,,175,200,,200,200,,,D,Raw,M,Masters 45-49
1,Perry Johnson,MS,90,88.1,,51,,,,,,,,,232.5,250,-265,250,250,,,D,Raw,M,Masters 50-54
1,Eddie Crum,TX,90,89.6,,58,,,,,,,,,215,227.5,232.5,232.5,232.5,,,D,Raw,M,Masters 55-59
1,Jason Frickey,LA,90,83.2,,60,,,,,,,,,175,182.5,187.5,187.5,187.5,,,D,Raw,M,Masters 60-64
1,Nick D'Alessandro,FL,90,86.4,,69,,,,,,,,,135,142.5,155,155,155,,,D,Raw,M,Masters 65-69
1,Bob Hester,TX,100,97.3,,50,,,,,,,,,307.5,-322.5,-322.5,307.5,307.5,,,D,Raw,M,Masters 50-54
1,Jimmy Toups,LA,100,97.8,,62,,,,,,,,,140,-145,147.5,147.5,147.5,,,D,Raw,M,Masters 60-64
1,Bobby Whitten,SC,100,99.6,,73,,,,,,,,,175,182.5,,182.5,182.5,,,D,Raw,M,Masters 70-74
1,Millard Peacock,AL,110,107.1,,47,,,,,,,,,-275,290,-295,290,290,,,D,Raw,M,Masters 45-49
1,Robert Callender,MI,110,107.8,,77,,,,,,,,,185,195,205,205,205,,,D,Raw,M,Masters 75-79
1,Matt Imwalle,CA,125,120.9,,40,,,,,,,,,300,-320,-327.5,300,300,,,D,Raw,M,Masters 40-44
2,Jason Ballard,AL,125,115.9,,42,,,,,,,,,265,-270,,265,265,,,D,Raw,M,Masters 40-44
1,Austen Horton,TX,125,124.4,,46,,,,,,,,,-295,-295,295,295,295,,,D,Raw,M,Masters 45-49
1,Bruce Koch #1,TX,125,124,,61,,,,,,,,,-257.5,275,-290,275,275,,,D,Raw,M,Masters 60-64
1,Daniel Perales,TX,140,128.9,,40,,,,,,,,,262.5,272.5,-285,272.5,272.5,,,D,Raw,M,Masters 40-44
1,Geomar Jaramillo,,140+,165.6,,42,,,,,,,,,317.5,-338,-338,317.5,317.5,,,D,Raw,M,Masters 40-44
1,Laura Lee #1,MS,100,98,,49,,,,,,,,,162.5,172.5,175,175,175,,,D,Single-ply,F,Masters 45-49
1,Richard Yarber,OK,110,108.7,,39,,,,,,,,,-285,305.5,-317.5,305.5,305.5,,,D,Single-ply,M,Open
2,Codey Williams,OK,110,102.2,,27,,,,,,,,,285,-305,305,305,305,,,D,Single-ply,M,Open
1,Richard Yarber,OK,110,108.7,,39,,,,,,,,,-285,305.5,-317.5,305.5,305.5,,,D,Single-ply,M,Submasters 35-39
1,Dr. Ken Jones,FL,110,101.5,,67,,,,,,,,,180,-215.5,,180,180,,,D,Single-ply,M,Masters 65-69
1,Henry Henington,MS,110,104.1,,81,,,,,,,,,120,128,133,133,133,,,D,Single-ply,M,Masters 80+
1,Azariah Pierce,LA,110,102,,30,,,,,195,205,-210,205,-355,-355,355,355,560,,,BD,Raw,M,Open
1,Dom Oramas,NY,125,120.9,,26,,,,,195,-207.5,-210,195,250,272.5,-295,272.5,467.5,,,BD,Raw,M,Open
